[
    {
    "op": "add",
    "path": "/game:v1.18expanded-matter-2",
    "value": [
                "/iir remap em:crushed-metal-temporal em:crushedluminous-metal-temporal force"
	     ],
    "file": "game:config/remaps.json"
    },
    {
    "op": "add",
    "path": "/game:v1.18expaned-matter-240",
    "value": [
		"/iir remap em:crushed-stone-granite em:crushed-ore-granite force",
		"/iir remap em:powdered-stone-granite em:powdered-ore-granite force",
		"/iir remap em:powdered-stone-bauxite em:powdered-ore-bauxite force"
    ],
    "file": "game:config/remaps.json"
    }
]
