[
  {
    "op": "add",
    "path": "/crushingPropsByType",
    "value": {
      "gear-temporal": {
        "crushedStack": {
          "type": "item",
          "code": "em:crushed-metal-temporal",
          "stacksize": 3
        },
        "hardnessTier": 3
      }
    },
    "file": "game:itemtypes/resource/gear.json",
    "side": "Server"
  },
  {
    "op": "add",
    "path": "/lightHsvByType",
    "value": {
      "gear-temporal": [ 32, 7, 3 ]
    },
    "file": "game:itemtypes/resource/gear.json",
    "side": "Server"
  }
]
