[
	{
        "code": "pickledvegetable",
	"enabled": false,
        "sealHours": 384,
	"ingredients": [
		{ "type": "item", "code": "em:dilutedsaltpeterportion", "litres": 1, "consumeLitres": 1 },
		{ "type": "item", "code": "game:vegetable-*", "quantity": 1, "name": "vegetable", "allowedVariants": [ "carrot", "onion", "parsnip", "pumpkin", "turnip", "cabbage", "olive" ] }
	],
	"output": { "type": "item", "code": "game:pickledvegetable-{vegetable}", "stackSize": 1 }
	}
]
