[
	{
	"code": "dilutedchromite_powdered",
	"ingredients": [
		{ "type": "item", "code": "game:waterportion", "litres": 5 },
		{ "type": "item", "code": "em:powdered-ore-chromite", "quantity": 2 }
	],
	"recipeGroup": 2,
	"output": { "type": "item", "code": "game:dilutedchromiteportion", "litres": 5 }
	}
]
