[
	{
	"code": "kernite-to-borax",
	"ingredients": [
		{ "type": "item", "code": "game:waterportion", "litres": 1 },
		{ "type": "item", "code": "em:powdered-ore-kernite", "quantity": 4 }
	],
	"sealHours": 288,
	"output": { "type": "item", "code": "game:ore-borax", "quantity": 1 }
	}
]
