[
  {
    "op": "addmerge",
    "path": "/0/enabled",
    "value": false,
    "file": "em:recipes/barrel/fruitvinegar.json",
    "dependsOn": [ { "modid": "expandedfoods" } ],
    "side": "Server"
  }
]
